ALL0005/F0005CH2.CSV

Record Length,2.500000e+03,,   0.002996000000,  -1.20000,
Sample Interval,4.000000e-07,,   0.002996400000,  -1.20000,
Trigger Point,-7.490000000000e+03,,   0.002996800000,  -1.20000,
,,,   0.002997200000,  -1.20000,
,,,   0.002997600000,  -1.40000,
,,,   0.002998000000,  -1.40000,
Source,CH2,,   0.002998400000,  -1.40000,
Vertical Units,V,,   0.002998800000,  -1.40000,
Vertical Scale,5.000000e+00,,   0.002999200000,  -1.40000,
Vertical Offset,-4.000000e-01,,   0.002999600000,  -1.80000,
Horizontal Units,s,,   0.003000000000,  -1.60000,
Horizontal Scale,1.000000e-04,,   0.003000400000,  -1.80000,
Pt Fmt,Y,,   0.003000800000,  -1.80000,
Yzero,0.000000e+00,,   0.003001200000,  -1.80000,
Probe Atten,1.000000e+00,,   0.003001600000,  -2.00000,
Model Number,TBS1052B-EDU,,   0.003002000000,  -2.20000,
Serial Number,C031240,,   0.003002400000,  -2.20000,
Firmware Version,FV:v4.06,,   0.003002800000,  -2.20000,
,,,0.003003200000,  -2.20000,
,,,0.003003600000,  -2.20000,
,,,0.003004000000,  -2.20000,
,,,0.003004400000,  -2.40000,
,,,0.003004800000,  -2.40000,
,,,0.003005200000,  -2.40000,
,,,0.003005600000,  -2.40000,
,,,0.003006000000,  -2.60000,
,,,0.003006400000,  -2.80000,
,,,0.003006800000,  -2.60000,
,,,0.003007200000,  -2.80000,
,,,0.003007600000,  -2.80000,
,,,0.003008000000,  -2.80000,
,,,0.003008400000,  -3.00000,
,,,0.003008800000,  -3.00000,
,,,0.003009200000,  -3.00000,
,,,0.003009600000,  -3.20000,
,,,0.003010000000,  -3.00000,
,,,0.003010400000,  -3.20000,
,,,0.003010800000,  -3.40000,
,,,0.003011200000,  -3.40000,
,,,0.003011600000,  -3.20000,
,,,0.003012000000,  -3.60000,
,,,0.003012400000,  -3.40000,
,,,0.003012800000,  -3.40000,
,,,0.003013200000,  -3.40000,
,,,0.003013600000,  -3.80000,
,,,0.003014000000,  -3.60000,
,,,0.003014400000,  -4.00000,
,,,0.003014800000,  -3.80000,
,,,0.003015200000,  -3.60000,
,,,0.003015600000,  -4.20000,
,,,0.003016000000,  -4.00000,
,,,0.003016400000,  -4.00000,
,,,0.003016800000,  -4.20000,
,,,0.003017200000,  -4.20000,
,,,0.003017600000,  -4.20000,
,,,0.003018000000,  -4.40000,
,,,0.003018400000,  -4.40000,
,,,0.003018800000,  -4.40000,
,,,0.003019200000,  -4.40000,
,,,0.003019600000,  -4.40000,
,,,0.003020000000,  -4.60000,
,,,0.003020400000,  -4.60000,
,,,0.003020800000,  -4.60000,
,,,0.003021200000,  -4.60000,
,,,0.003021600000,  -4.80000,
,,,0.003022000000,  -4.80000,
,,,0.003022400000,  -5.00000,
,,,0.003022800000,  -5.00000,
,,,0.003023200000,  -5.00000,
,,,0.003023600000,  -5.20000,
,,,0.003024000000,  -5.20000,
,,,0.003024400000,  -5.40000,
,,,0.003024800000,  -5.20000,
,,,0.003025200000,  -5.60000,
,,,0.003025600000,  -5.40000,
,,,0.003026000000,  -5.60000,
,,,0.003026400000,  -5.40000,
,,,0.003026800000,  -5.40000,
,,,0.003027200000,  -5.60000,
,,,0.003027600000,  -5.60000,
,,,0.003028000000,  -5.60000,
,,,0.003028400000,  -5.60000,
,,,0.003028800000,  -5.60000,
,,,0.003029200000,  -5.80000,
,,,0.003029600000,  -5.80000,
,,,0.003030000000,  -5.80000,
,,,0.003030400000,  -6.00000,
,,,0.003030800000,  -6.00000,
,,,0.003031200000,  -6.00000,
,,,0.003031600000,  -6.00000,
,,,0.003032000000,  -6.20000,
,,,0.003032400000,  -6.40000,
,,,0.003032800000,  -6.20000,
,,,0.003033200000,  -6.40000,
,,,0.003033600000,  -6.40000,
,,,0.003034000000,  -6.40000,
,,,0.003034400000,  -6.40000,
,,,0.003034800000,  -6.60000,
,,,0.003035200000,  -6.80000,
,,,0.003035600000,  -6.80000,
,,,0.003036000000,  -6.80000,
,,,0.003036400000,  -7.00000,
,,,0.003036800000,  -6.80000,
,,,0.003037200000,  -7.20000,
,,,0.003037600000,  -7.00000,
,,,0.003038000000,  -7.00000,
,,,0.003038400000,  -7.20000,
,,,0.003038800000,  -7.00000,
,,,0.003039200000,  -7.20000,
,,,0.003039600000,  -7.20000,
,,,0.003040000000,  -7.40000,
,,,0.003040400000,  -7.40000,
,,,0.003040800000,  -7.40000,
,,,0.003041200000,  -7.60000,
,,,0.003041600000,  -7.40000,
,,,0.003042000000,  -7.40000,
,,,0.003042400000,  -7.60000,
,,,0.003042800000,  -7.80000,
,,,0.003043200000,  -7.60000,
,,,0.003043600000,  -7.80000,
,,,0.003044000000,  -8.00000,
,,,0.003044400000,  -8.00000,
,,,0.003044800000,  -7.80000,
,,,0.003045200000,  -7.80000,
,,,0.003045600000,  -8.00000,
,,,0.003046000000,  -8.00000,
,,,0.003046400000,  -8.40000,
,,,0.003046800000,  -8.20000,
,,,0.003047200000,  -8.20000,
,,,0.003047600000,  -8.40000,
,,,0.003048000000,  -8.60000,
,,,0.003048400000,  -8.40000,
,,,0.003048800000,  -8.60000,
,,,0.003049200000,  -8.80000,
,,,0.003049600000,  -8.80000,
,,,0.003050000000,  -8.80000,
,,,0.003050400000,  -8.80000,
,,,0.003050800000,  -8.60000,
,,,0.003051200000,  -8.80000,
,,,0.003051600000,  -9.00000,
,,,0.003052000000,  -9.00000,
,,,0.003052400000,  -9.00000,
,,,0.003052800000,  -9.00000,
,,,0.003053200000,  -9.20000,
,,,0.003053600000,  -9.20000,
,,,0.003054000000,  -9.20000,
,,,0.003054400000,  -9.40000,
,,,0.003054800000,  -9.40000,
,,,0.003055200000,  -9.60000,
,,,0.003055600000,  -9.40000,
,,,0.003056000000,  -9.60000,
,,,0.003056400000,  -9.60000,
,,,0.003056800000,  -9.60000,
,,,0.003057200000,  -9.80000,
,,,0.003057600000,  -9.80000,
,,,0.003058000000, -10.00000,
,,,0.003058400000, -10.00000,
,,,0.003058800000, -10.00000,
,,,0.003059200000, -10.00000,
,,,0.003059600000, -10.00000,
,,,0.003060000000, -10.00000,
,,,0.003060400000, -10.20000,
,,,0.003060800000, -10.20000,
,,,0.003061200000, -10.40000,
,,,0.003061600000, -10.40000,
,,,0.003062000000, -10.40000,
,,,0.003062400000, -10.20000,
,,,0.003062800000, -10.40000,
,,,0.003063200000, -10.20000,
,,,0.003063600000, -10.40000,
,,,0.003064000000, -10.40000,
,,,0.003064400000, -10.40000,
,,,0.003064800000, -10.40000,
,,,0.003065200000, -10.40000,
,,,0.003065600000, -10.60000,
,,,0.003066000000, -10.40000,
,,,0.003066400000, -10.20000,
,,,0.003066800000, -10.60000,
,,,0.003067200000, -10.60000,
,,,0.003067600000, -10.40000,
,,,0.003068000000, -10.20000,
,,,0.003068400000, -10.40000,
,,,0.003068800000, -10.60000,
,,,0.003069200000, -10.40000,
,,,0.003069600000, -10.40000,
,,,0.003070000000, -10.40000,
,,,0.003070400000, -10.40000,
,,,0.003070800000, -10.60000,
,,,0.003071200000, -10.40000,
,,,0.003071600000, -10.40000,
,,,0.003072000000, -10.40000,
,,,0.003072400000, -10.20000,
,,,0.003072800000, -10.20000,
,,,0.003073200000, -10.20000,
,,,0.003073600000, -10.40000,
,,,0.003074000000, -10.40000,
,,,0.003074400000, -10.60000,
,,,0.003074800000, -10.40000,
,,,0.003075200000, -10.40000,
,,,0.003075600000, -10.40000,
,,,0.003076000000, -10.40000,
,,,0.003076400000, -10.40000,
,,,0.003076800000, -10.60000,
,,,0.003077200000, -10.40000,
,,,0.003077600000, -10.40000,
,,,0.003078000000, -10.40000,
,,,0.003078400000, -10.40000,
,,,0.003078800000, -10.20000,
,,,0.003079200000, -10.40000,
,,,0.003079600000, -10.40000,
,,,0.003080000000, -10.40000,
,,,0.003080400000, -10.60000,
,,,0.003080800000, -10.40000,
,,,0.003081200000, -10.40000,
,,,0.003081600000, -10.60000,
,,,0.003082000000, -10.40000,
,,,0.003082400000, -10.40000,
,,,0.003082800000, -10.40000,
,,,0.003083200000, -10.20000,
,,,0.003083600000, -10.60000,
,,,0.003084000000, -10.40000,
,,,0.003084400000, -10.40000,
,,,0.003084800000, -10.20000,
,,,0.003085200000, -10.60000,
,,,0.003085600000, -10.40000,
,,,0.003086000000, -10.40000,
,,,0.003086400000, -10.20000,
,,,0.003086800000, -10.40000,
,,,0.003087200000, -10.60000,
,,,0.003087600000, -10.40000,
,,,0.003088000000, -10.20000,
,,,0.003088400000, -10.20000,
,,,0.003088800000, -10.40000,
,,,0.003089200000, -10.40000,
,,,0.003089600000, -10.20000,
,,,0.003090000000, -10.20000,
,,,0.003090400000, -10.20000,
,,,0.003090800000, -10.40000,
,,,0.003091200000, -10.40000,
,,,0.003091600000, -10.40000,
,,,0.003092000000, -10.20000,
,,,0.003092400000, -10.40000,
,,,0.003092800000, -10.40000,
,,,0.003093200000, -10.40000,
,,,0.003093600000, -10.40000,
,,,0.003094000000, -10.40000,
,,,0.003094400000, -10.40000,
,,,0.003094800000, -10.60000,
,,,0.003095200000, -10.20000,
,,,0.003095600000, -10.40000,
,,,0.003096000000, -10.40000,
,,,0.003096400000, -10.20000,
,,,0.003096800000, -10.60000,
,,,0.003097200000, -10.60000,
,,,0.003097600000, -10.40000,
,,,0.003098000000, -10.20000,
,,,0.003098400000, -10.40000,
,,,0.003098800000, -10.60000,
,,,0.003099200000, -10.60000,
,,,0.003099600000, -10.20000,
,,,0.003100000000, -10.40000,
,,,0.003100400000, -10.40000,
,,,0.003100800000, -10.40000,
,,,0.003101200000, -10.40000,
,,,0.003101600000, -10.60000,
,,,0.003102000000, -10.40000,
,,,0.003102400000, -10.40000,
,,,0.003102800000, -10.40000,
,,,0.003103200000, -10.40000,
,,,0.003103600000, -10.40000,
,,,0.003104000000, -10.40000,
,,,0.003104400000, -10.60000,
,,,0.003104800000, -10.40000,
,,,0.003105200000, -10.60000,
,,,0.003105600000, -10.20000,
,,,0.003106000000, -10.00000,
,,,0.003106400000, -10.40000,
,,,0.003106800000, -10.40000,
,,,0.003107200000, -10.40000,
,,,0.003107600000, -10.20000,
,,,0.003108000000, -10.40000,
,,,0.003108400000, -10.60000,
,,,0.003108800000, -10.40000,
,,,0.003109200000, -10.60000,
,,,0.003109600000, -10.40000,
,,,0.003110000000, -10.40000,
,,,0.003110400000, -10.40000,
,,,0.003110800000, -10.20000,
,,,0.003111200000, -10.40000,
,,,0.003111600000, -10.40000,
,,,0.003112000000, -10.40000,
,,,0.003112400000, -10.40000,
,,,0.003112800000, -10.40000,
,,,0.003113200000, -10.40000,
,,,0.003113600000, -10.40000,
,,,0.003114000000, -10.60000,
,,,0.003114400000, -10.40000,
,,,0.003114800000, -10.40000,
,,,0.003115200000, -10.60000,
,,,0.003115600000, -10.40000,
,,,0.003116000000, -10.40000,
,,,0.003116400000, -10.60000,
,,,0.003116800000, -10.40000,
,,,0.003117200000, -10.40000,
,,,0.003117600000, -10.40000,
,,,0.003118000000, -10.40000,
,,,0.003118400000, -10.40000,
,,,0.003118800000, -10.20000,
,,,0.003119200000, -10.40000,
,,,0.003119600000, -10.60000,
,,,0.003120000000, -10.40000,
,,,0.003120400000, -10.20000,
,,,0.003120800000, -10.40000,
,,,0.003121200000, -10.40000,
,,,0.003121600000, -10.40000,
,,,0.003122000000, -10.40000,
,,,0.003122400000, -10.40000,
,,,0.003122800000, -10.20000,
,,,0.003123200000, -10.40000,
,,,0.003123600000, -10.20000,
,,,0.003124000000, -10.40000,
,,,0.003124400000, -10.20000,
,,,0.003124800000, -10.40000,
,,,0.003125200000, -10.40000,
,,,0.003125600000, -10.40000,
,,,0.003126000000, -10.40000,
,,,0.003126400000, -10.20000,
,,,0.003126800000, -10.40000,
,,,0.003127200000, -10.60000,
,,,0.003127600000, -10.20000,
,,,0.003128000000, -10.60000,
,,,0.003128400000, -10.20000,
,,,0.003128800000, -10.40000,
,,,0.003129200000, -10.20000,
,,,0.003129600000, -10.60000,
,,,0.003130000000, -10.00000,
,,,0.003130400000, -10.20000,
,,,0.003130800000, -10.40000,
,,,0.003131200000, -10.40000,
,,,0.003131600000, -10.40000,
,,,0.003132000000, -10.40000,
,,,0.003132400000, -10.40000,
,,,0.003132800000, -10.40000,
,,,0.003133200000, -10.40000,
,,,0.003133600000, -10.40000,
,,,0.003134000000, -10.40000,
,,,0.003134400000, -10.40000,
,,,0.003134800000, -10.40000,
,,,0.003135200000, -10.40000,
,,,0.003135600000, -10.40000,
,,,0.003136000000, -10.40000,
,,,0.003136400000, -10.40000,
,,,0.003136800000, -10.20000,
,,,0.003137200000, -10.40000,
,,,0.003137600000, -10.40000,
,,,0.003138000000, -10.40000,
,,,0.003138400000, -10.60000,
,,,0.003138800000, -10.40000,
,,,0.003139200000, -10.40000,
,,,0.003139600000, -10.20000,
,,,0.003140000000, -10.40000,
,,,0.003140400000, -10.40000,
,,,0.003140800000, -10.40000,
,,,0.003141200000, -10.40000,
,,,0.003141600000, -10.60000,
,,,0.003142000000, -10.40000,
,,,0.003142400000, -10.40000,
,,,0.003142800000, -10.40000,
,,,0.003143200000, -10.40000,
,,,0.003143600000, -10.40000,
,,,0.003144000000, -10.40000,
,,,0.003144400000, -10.40000,
,,,0.003144800000, -10.40000,
,,,0.003145200000, -10.40000,
,,,0.003145600000, -10.20000,
,,,0.003146000000, -10.40000,
,,,0.003146400000, -10.40000,
,,,0.003146800000, -10.40000,
,,,0.003147200000, -10.40000,
,,,0.003147600000, -10.40000,
,,,0.003148000000, -10.40000,
,,,0.003148400000, -10.40000,
,,,0.003148800000, -10.60000,
,,,0.003149200000, -10.40000,
,,,0.003149600000, -10.60000,
,,,0.003150000000, -10.40000,
,,,0.003150400000, -10.40000,
,,,0.003150800000, -10.40000,
,,,0.003151200000, -10.60000,
,,,0.003151600000, -10.40000,
,,,0.003152000000, -10.40000,
,,,0.003152400000, -10.20000,
,,,0.003152800000, -10.40000,
,,,0.003153200000, -10.20000,
,,,0.003153600000, -10.60000,
,,,0.003154000000, -10.40000,
,,,0.003154400000, -10.40000,
,,,0.003154800000, -10.40000,
,,,0.003155200000, -10.40000,
,,,0.003155600000, -10.40000,
,,,0.003156000000, -10.40000,
,,,0.003156400000, -10.40000,
,,,0.003156800000, -10.40000,
,,,0.003157200000, -10.40000,
,,,0.003157600000, -10.20000,
,,,0.003158000000, -10.20000,
,,,0.003158400000, -10.40000,
,,,0.003158800000, -10.40000,
,,,0.003159200000, -10.40000,
,,,0.003159600000, -10.20000,
,,,0.003160000000, -10.40000,
,,,0.003160400000, -10.40000,
,,,0.003160800000, -10.20000,
,,,0.003161200000, -10.40000,
,,,0.003161600000, -10.40000,
,,,0.003162000000, -10.40000,
,,,0.003162400000, -10.40000,
,,,0.003162800000, -10.40000,
,,,0.003163200000, -10.40000,
,,,0.003163600000, -10.40000,
,,,0.003164000000, -10.40000,
,,,0.003164400000, -10.40000,
,,,0.003164800000, -10.40000,
,,,0.003165200000, -10.40000,
,,,0.003165600000, -10.40000,
,,,0.003166000000, -10.40000,
,,,0.003166400000, -10.40000,
,,,0.003166800000, -10.60000,
,,,0.003167200000, -10.20000,
,,,0.003167600000, -10.20000,
,,,0.003168000000, -10.40000,
,,,0.003168400000, -10.60000,
,,,0.003168800000, -10.40000,
,,,0.003169200000, -10.60000,
,,,0.003169600000, -10.20000,
,,,0.003170000000, -10.20000,
,,,0.003170400000, -10.40000,
,,,0.003170800000, -10.40000,
,,,0.003171200000, -10.20000,
,,,0.003171600000, -10.40000,
,,,0.003172000000, -10.20000,
,,,0.003172400000, -10.20000,
,,,0.003172800000, -10.40000,
,,,0.003173200000, -10.40000,
,,,0.003173600000, -10.20000,
,,,0.003174000000, -10.60000,
,,,0.003174400000, -10.40000,
,,,0.003174800000, -10.40000,
,,,0.003175200000, -10.20000,
,,,0.003175600000, -10.20000,
,,,0.003176000000, -10.40000,
,,,0.003176400000, -10.40000,
,,,0.003176800000, -10.60000,
,,,0.003177200000, -10.20000,
,,,0.003177600000, -10.60000,
,,,0.003178000000, -10.40000,
,,,0.003178400000, -10.40000,
,,,0.003178800000, -10.60000,
,,,0.003179200000, -10.40000,
,,,0.003179600000, -10.20000,
,,,0.003180000000, -10.20000,
,,,0.003180400000, -10.40000,
,,,0.003180800000, -10.40000,
,,,0.003181200000, -10.40000,
,,,0.003181600000, -10.40000,
,,,0.003182000000, -10.40000,
,,,0.003182400000, -10.60000,
,,,0.003182800000, -10.40000,
,,,0.003183200000, -10.40000,
,,,0.003183600000, -10.40000,
,,,0.003184000000, -10.40000,
,,,0.003184400000, -10.40000,
,,,0.003184800000, -10.20000,
,,,0.003185200000, -10.40000,
,,,0.003185600000, -10.40000,
,,,0.003186000000, -10.20000,
,,,0.003186400000, -10.20000,
,,,0.003186800000, -10.40000,
,,,0.003187200000, -10.20000,
,,,0.003187600000, -10.40000,
,,,0.003188000000, -10.40000,
,,,0.003188400000, -10.40000,
,,,0.003188800000, -10.40000,
,,,0.003189200000, -10.40000,
,,,0.003189600000, -10.20000,
,,,0.003190000000, -10.60000,
,,,0.003190400000, -10.20000,
,,,0.003190800000, -10.40000,
,,,0.003191200000, -10.40000,
,,,0.003191600000, -10.40000,
,,,0.003192000000, -10.40000,
,,,0.003192400000, -10.60000,
,,,0.003192800000, -10.40000,
,,,0.003193200000, -10.60000,
,,,0.003193600000, -10.20000,
,,,0.003194000000, -10.40000,
,,,0.003194400000, -10.40000,
,,,0.003194800000, -10.40000,
,,,0.003195200000, -10.40000,
,,,0.003195600000, -10.60000,
,,,0.003196000000, -10.20000,
,,,0.003196400000, -10.40000,
,,,0.003196800000, -10.40000,
,,,0.003197200000, -10.40000,
,,,0.003197600000, -10.40000,
,,,0.003198000000, -10.40000,
,,,0.003198400000, -10.20000,
,,,0.003198800000, -10.60000,
,,,0.003199200000, -10.40000,
,,,0.003199600000, -10.20000,
,,,0.003200000000, -10.40000,
,,,0.003200400000, -10.60000,
,,,0.003200800000, -10.40000,
,,,0.003201200000, -10.40000,
,,,0.003201600000, -10.60000,
,,,0.003202000000, -10.40000,
,,,0.003202400000, -10.40000,
,,,0.003202800000, -10.40000,
,,,0.003203200000, -10.40000,
,,,0.003203600000, -10.20000,
,,,0.003204000000, -10.40000,
,,,0.003204400000, -10.40000,
,,,0.003204800000, -10.40000,
,,,0.003205200000, -10.40000,
,,,0.003205600000, -10.40000,
,,,0.003206000000, -10.40000,
,,,0.003206400000, -10.40000,
,,,0.003206800000, -10.20000,
,,,0.003207200000, -10.40000,
,,,0.003207600000, -10.40000,
,,,0.003208000000, -10.40000,
,,,0.003208400000, -10.40000,
,,,0.003208800000, -10.40000,
,,,0.003209200000, -10.20000,
,,,0.003209600000, -10.20000,
,,,0.003210000000, -10.40000,
,,,0.003210400000, -10.40000,
,,,0.003210800000, -10.40000,
,,,0.003211200000, -10.20000,
,,,0.003211600000, -10.20000,
,,,0.003212000000, -10.40000,
,,,0.003212400000, -10.40000,
,,,0.003212800000, -10.40000,
,,,0.003213200000, -10.20000,
,,,0.003213600000, -10.60000,
,,,0.003214000000, -10.40000,
,,,0.003214400000, -10.60000,
,,,0.003214800000, -10.40000,
,,,0.003215200000, -10.40000,
,,,0.003215600000, -10.60000,
,,,0.003216000000, -10.40000,
,,,0.003216400000, -10.40000,
,,,0.003216800000, -10.40000,
,,,0.003217200000, -10.40000,
,,,0.003217600000, -10.60000,
,,,0.003218000000, -10.60000,
,,,0.003218400000, -10.40000,
,,,0.003218800000, -10.40000,
,,,0.003219200000, -10.20000,
,,,0.003219600000, -10.40000,
,,,0.003220000000, -10.40000,
,,,0.003220400000, -10.40000,
,,,0.003220800000, -10.20000,
,,,0.003221200000, -10.40000,
,,,0.003221600000, -10.40000,
,,,0.003222000000, -10.20000,
,,,0.003222400000, -10.40000,
,,,0.003222800000, -10.40000,
,,,0.003223200000, -10.40000,
,,,0.003223600000, -10.40000,
,,,0.003224000000, -10.40000,
,,,0.003224400000, -10.20000,
,,,0.003224800000, -10.40000,
,,,0.003225200000, -10.60000,
,,,0.003225600000, -10.40000,
,,,0.003226000000, -10.40000,
,,,0.003226400000, -10.20000,
,,,0.003226800000, -10.40000,
,,,0.003227200000, -10.40000,
,,,0.003227600000, -10.40000,
,,,0.003228000000, -10.40000,
,,,0.003228400000, -10.40000,
,,,0.003228800000, -10.40000,
,,,0.003229200000, -10.40000,
,,,0.003229600000, -10.40000,
,,,0.003230000000, -10.40000,
,,,0.003230400000, -10.60000,
,,,0.003230800000, -10.40000,
,,,0.003231200000, -10.20000,
,,,0.003231600000, -10.60000,
,,,0.003232000000, -10.40000,
,,,0.003232400000, -10.40000,
,,,0.003232800000, -10.60000,
,,,0.003233200000, -10.40000,
,,,0.003233600000, -10.20000,
,,,0.003234000000, -10.60000,
,,,0.003234400000, -10.40000,
,,,0.003234800000, -10.40000,
,,,0.003235200000, -10.60000,
,,,0.003235600000, -10.20000,
,,,0.003236000000, -10.40000,
,,,0.003236400000, -10.40000,
,,,0.003236800000, -10.20000,
,,,0.003237200000, -10.40000,
,,,0.003237600000, -10.40000,
,,,0.003238000000, -10.60000,
,,,0.003238400000, -10.60000,
,,,0.003238800000, -10.40000,
,,,0.003239200000, -10.20000,
,,,0.003239600000, -10.60000,
,,,0.003240000000, -10.40000,
,,,0.003240400000, -10.40000,
,,,0.003240800000, -10.40000,
,,,0.003241200000, -10.60000,
,,,0.003241600000, -10.40000,
,,,0.003242000000, -10.40000,
,,,0.003242400000, -10.40000,
,,,0.003242800000, -10.40000,
,,,0.003243200000, -10.40000,
,,,0.003243600000, -10.40000,
,,,0.003244000000, -10.20000,
,,,0.003244400000, -10.40000,
,,,0.003244800000, -10.40000,
,,,0.003245200000, -10.20000,
,,,0.003245600000, -10.40000,
,,,0.003246000000, -10.60000,
,,,0.003246400000, -10.20000,
,,,0.003246800000, -10.40000,
,,,0.003247200000, -10.20000,
,,,0.003247600000, -10.40000,
,,,0.003248000000, -10.40000,
,,,0.003248400000, -10.40000,
,,,0.003248800000, -10.20000,
,,,0.003249200000, -10.20000,
,,,0.003249600000, -10.60000,
,,,0.003250000000, -10.40000,
,,,0.003250400000, -10.60000,
,,,0.003250800000, -10.40000,
,,,0.003251200000, -10.20000,
,,,0.003251600000, -10.40000,
,,,0.003252000000, -10.40000,
,,,0.003252400000, -10.20000,
,,,0.003252800000, -10.20000,
,,,0.003253200000, -10.20000,
,,,0.003253600000, -10.40000,
,,,0.003254000000, -10.40000,
,,,0.003254400000, -10.20000,
,,,0.003254800000, -10.40000,
,,,0.003255200000, -10.60000,
,,,0.003255600000, -10.40000,
,,,0.003256000000, -10.60000,
,,,0.003256400000, -10.40000,
,,,0.003256800000, -10.20000,
,,,0.003257200000, -10.60000,
