ALL0011/F0011CH1.CSV

Record Length,2.500000e+03,,   0.002952000000,   0.20000,
Sample Interval,4.000000e-07,,   0.002952400000,   0.00000,
Trigger Point,-7.380000000000e+03,,   0.002952800000,   0.00000,
,,,   0.002953200000,   0.00000,
,,,   0.002953600000,   0.20000,
,,,   0.002954000000,   0.20000,
Source,CH1,,   0.002954400000,   0.00000,
Vertical Units,V,,   0.002954800000,   0.20000,
Vertical Scale,5.000000e+00,,   0.002955200000,   0.20000,
Vertical Offset,4.000000e-01,,   0.002955600000,   0.40000,
Horizontal Units,s,,   0.002956000000,   0.40000,
Horizontal Scale,1.000000e-04,,   0.002956400000,   0.40000,
Pt Fmt,Y,,   0.002956800000,   0.20000,
Yzero,0.000000e+00,,   0.002957200000,   0.20000,
Probe Atten,1.000000e+00,,   0.002957600000,   0.40000,
Model Number,TBS1052B-EDU,,   0.002958000000,   0.20000,
Serial Number,C031240,,   0.002958400000,   0.40000,
Firmware Version,FV:v4.06,,   0.002958800000,   0.40000,
,,,0.002959200000,   0.20000,
,,,0.002959600000,   0.40000,
,,,0.002960000000,   0.20000,
,,,0.002960400000,   0.20000,
,,,0.002960800000,   0.20000,
,,,0.002961200000,   0.40000,
,,,0.002961600000,   0.20000,
,,,0.002962000000,   0.40000,
,,,0.002962400000,   0.40000,
,,,0.002962800000,   0.40000,
,,,0.002963200000,   0.20000,
,,,0.002963600000,   0.40000,
,,,0.002964000000,   0.40000,
,,,0.002964400000,   0.40000,
,,,0.002964800000,   0.60000,
,,,0.002965200000,   0.60000,
,,,0.002965600000,   0.40000,
,,,0.002966000000,   0.40000,
,,,0.002966400000,   0.60000,
,,,0.002966800000,   0.60000,
,,,0.002967200000,   0.40000,
,,,0.002967600000,   0.60000,
,,,0.002968000000,   0.40000,
,,,0.002968400000,   0.40000,
,,,0.002968800000,   0.60000,
,,,0.002969200000,   0.40000,
,,,0.002969600000,   0.60000,
,,,0.002970000000,   0.80000,
,,,0.002970400000,   0.80000,
,,,0.002970800000,   0.60000,
,,,0.002971200000,   0.60000,
,,,0.002971600000,   0.80000,
,,,0.002972000000,   0.80000,
,,,0.002972400000,   0.80000,
,,,0.002972800000,   0.80000,
,,,0.002973200000,   0.60000,
,,,0.002973600000,   0.60000,
,,,0.002974000000,   0.80000,
,,,0.002974400000,   0.60000,
,,,0.002974800000,   0.80000,
,,,0.002975200000,   0.60000,
,,,0.002975600000,   0.80000,
,,,0.002976000000,   0.60000,
,,,0.002976400000,   1.00000,
,,,0.002976800000,   0.60000,
,,,0.002977200000,   1.00000,
,,,0.002977600000,   0.80000,
,,,0.002978000000,   0.80000,
,,,0.002978400000,   0.80000,
,,,0.002978800000,   1.00000,
,,,0.002979200000,   0.80000,
,,,0.002979600000,   1.00000,
,,,0.002980000000,   0.80000,
,,,0.002980400000,   1.00000,
,,,0.002980800000,   0.80000,
,,,0.002981200000,   1.00000,
,,,0.002981600000,   1.00000,
,,,0.002982000000,   0.80000,
,,,0.002982400000,   1.00000,
,,,0.002982800000,   0.80000,
,,,0.002983200000,   0.80000,
,,,0.002983600000,   1.20000,
,,,0.002984000000,   1.00000,
,,,0.002984400000,   1.00000,
,,,0.002984800000,   1.00000,
,,,0.002985200000,   1.00000,
,,,0.002985600000,   1.00000,
,,,0.002986000000,   1.00000,
,,,0.002986400000,   1.00000,
,,,0.002986800000,   1.20000,
,,,0.002987200000,   1.40000,
,,,0.002987600000,   1.20000,
,,,0.002988000000,   1.00000,
,,,0.002988400000,   1.20000,
,,,0.002988800000,   1.20000,
,,,0.002989200000,   1.20000,
,,,0.002989600000,   1.20000,
,,,0.002990000000,   1.20000,
,,,0.002990400000,   1.40000,
,,,0.002990800000,   1.20000,
,,,0.002991200000,   1.40000,
,,,0.002991600000,   1.20000,
,,,0.002992000000,   1.20000,
,,,0.002992400000,   1.20000,
,,,0.002992800000,   1.20000,
,,,0.002993200000,   1.40000,
,,,0.002993600000,   1.20000,
,,,0.002994000000,   1.00000,
,,,0.002994400000,   1.20000,
,,,0.002994800000,   1.40000,
,,,0.002995200000,   1.40000,
,,,0.002995600000,   1.40000,
,,,0.002996000000,   1.60000,
,,,0.002996400000,   1.40000,
,,,0.002996800000,   1.60000,
,,,0.002997200000,   1.40000,
,,,0.002997600000,   1.60000,
,,,0.002998000000,   1.40000,
,,,0.002998400000,   1.40000,
,,,0.002998800000,   1.40000,
,,,0.002999200000,   1.40000,
,,,0.002999600000,   1.60000,
,,,0.003000000000,   1.40000,
,,,0.003000400000,   1.40000,
,,,0.003000800000,   1.60000,
,,,0.003001200000,   1.60000,
,,,0.003001600000,   1.60000,
,,,0.003002000000,   1.60000,
,,,0.003002400000,   1.60000,
,,,0.003002800000,   1.60000,
,,,0.003003200000,   1.60000,
,,,0.003003600000,   1.40000,
,,,0.003004000000,   1.40000,
,,,0.003004400000,   1.80000,
,,,0.003004800000,   1.60000,
,,,0.003005200000,   1.60000,
,,,0.003005600000,   1.60000,
,,,0.003006000000,   1.60000,
,,,0.003006400000,   1.60000,
,,,0.003006800000,   1.60000,
,,,0.003007200000,   1.40000,
,,,0.003007600000,   1.60000,
,,,0.003008000000,   1.60000,
,,,0.003008400000,   1.60000,
,,,0.003008800000,   1.60000,
,,,0.003009200000,   1.60000,
,,,0.003009600000,   1.80000,
,,,0.003010000000,   1.80000,
,,,0.003010400000,   1.60000,
,,,0.003010800000,   2.00000,
,,,0.003011200000,   1.80000,
,,,0.003011600000,   1.80000,
,,,0.003012000000,   1.80000,
,,,0.003012400000,   1.80000,
,,,0.003012800000,   1.80000,
,,,0.003013200000,   1.80000,
,,,0.003013600000,   2.00000,
,,,0.003014000000,   1.80000,
,,,0.003014400000,   1.80000,
,,,0.003014800000,   1.60000,
,,,0.003015200000,   1.80000,
,,,0.003015600000,   1.60000,
,,,0.003016000000,   1.80000,
,,,0.003016400000,   1.80000,
,,,0.003016800000,   2.00000,
,,,0.003017200000,   2.00000,
,,,0.003017600000,   2.00000,
,,,0.003018000000,   1.80000,
,,,0.003018400000,   2.20000,
,,,0.003018800000,   2.00000,
,,,0.003019200000,   2.20000,
,,,0.003019600000,   2.20000,
,,,0.003020000000,   1.80000,
,,,0.003020400000,   2.20000,
,,,0.003020800000,   2.20000,
,,,0.003021200000,   2.00000,
,,,0.003021600000,   2.00000,
,,,0.003022000000,   2.20000,
,,,0.003022400000,   2.20000,
,,,0.003022800000,   2.40000,
,,,0.003023200000,   2.00000,
,,,0.003023600000,   2.00000,
,,,0.003024000000,   2.20000,
,,,0.003024400000,   2.00000,
,,,0.003024800000,   2.00000,
,,,0.003025200000,   2.40000,
,,,0.003025600000,   2.00000,
,,,0.003026000000,   2.40000,
,,,0.003026400000,   2.20000,
,,,0.003026800000,   2.20000,
,,,0.003027200000,   2.40000,
,,,0.003027600000,   2.40000,
,,,0.003028000000,   2.20000,
,,,0.003028400000,   2.20000,
,,,0.003028800000,   2.00000,
,,,0.003029200000,   2.20000,
,,,0.003029600000,   2.20000,
,,,0.003030000000,   2.20000,
,,,0.003030400000,   2.20000,
,,,0.003030800000,   2.40000,
,,,0.003031200000,   2.40000,
,,,0.003031600000,   2.20000,
,,,0.003032000000,   2.40000,
,,,0.003032400000,   2.60000,
,,,0.003032800000,   2.40000,
,,,0.003033200000,   2.40000,
,,,0.003033600000,   2.60000,
,,,0.003034000000,   2.40000,
,,,0.003034400000,   2.40000,
,,,0.003034800000,   2.40000,
,,,0.003035200000,   2.20000,
,,,0.003035600000,   2.20000,
,,,0.003036000000,   2.60000,
,,,0.003036400000,   2.20000,
,,,0.003036800000,   2.40000,
,,,0.003037200000,   2.40000,
,,,0.003037600000,   2.60000,
,,,0.003038000000,   2.40000,
,,,0.003038400000,   2.60000,
,,,0.003038800000,   2.40000,
,,,0.003039200000,   2.40000,
,,,0.003039600000,   2.60000,
,,,0.003040000000,   2.60000,
,,,0.003040400000,   2.40000,
,,,0.003040800000,   2.80000,
,,,0.003041200000,   2.60000,
,,,0.003041600000,   2.40000,
,,,0.003042000000,   2.40000,
,,,0.003042400000,   2.80000,
,,,0.003042800000,   2.40000,
,,,0.003043200000,   2.80000,
,,,0.003043600000,   2.60000,
,,,0.003044000000,   2.60000,
,,,0.003044400000,   2.60000,
,,,0.003044800000,   2.60000,
,,,0.003045200000,   2.60000,
,,,0.003045600000,   2.60000,
,,,0.003046000000,   2.60000,
,,,0.003046400000,   2.60000,
,,,0.003046800000,   2.80000,
,,,0.003047200000,   2.80000,
,,,0.003047600000,   2.80000,
,,,0.003048000000,   2.80000,
,,,0.003048400000,   2.80000,
,,,0.003048800000,   2.80000,
,,,0.003049200000,   2.80000,
,,,0.003049600000,   2.80000,
,,,0.003050000000,   3.00000,
,,,0.003050400000,   2.80000,
,,,0.003050800000,   2.80000,
,,,0.003051200000,   2.80000,
,,,0.003051600000,   2.60000,
,,,0.003052000000,   2.80000,
,,,0.003052400000,   2.80000,
,,,0.003052800000,   2.80000,
,,,0.003053200000,   3.00000,
,,,0.003053600000,   3.00000,
,,,0.003054000000,   2.80000,
,,,0.003054400000,   2.80000,
,,,0.003054800000,   2.80000,
,,,0.003055200000,   2.80000,
,,,0.003055600000,   3.00000,
,,,0.003056000000,   3.00000,
,,,0.003056400000,   3.00000,
,,,0.003056800000,   3.00000,
,,,0.003057200000,   2.80000,
,,,0.003057600000,   3.00000,
,,,0.003058000000,   3.00000,
,,,0.003058400000,   3.00000,
,,,0.003058800000,   3.00000,
,,,0.003059200000,   3.00000,
,,,0.003059600000,   3.00000,
,,,0.003060000000,   3.00000,
,,,0.003060400000,   3.20000,
,,,0.003060800000,   3.20000,
,,,0.003061200000,   3.00000,
,,,0.003061600000,   3.00000,
,,,0.003062000000,   3.00000,
,,,0.003062400000,   3.20000,
,,,0.003062800000,   3.20000,
,,,0.003063200000,   3.20000,
,,,0.003063600000,   3.00000,
,,,0.003064000000,   3.20000,
,,,0.003064400000,   3.00000,
,,,0.003064800000,   3.20000,
,,,0.003065200000,   3.00000,
,,,0.003065600000,   3.20000,
,,,0.003066000000,   3.00000,
,,,0.003066400000,   3.20000,
,,,0.003066800000,   3.20000,
,,,0.003067200000,   3.20000,
,,,0.003067600000,   3.00000,
,,,0.003068000000,   3.00000,
,,,0.003068400000,   3.20000,
,,,0.003068800000,   3.00000,
,,,0.003069200000,   3.20000,
,,,0.003069600000,   3.20000,
,,,0.003070000000,   3.00000,
,,,0.003070400000,   3.20000,
,,,0.003070800000,   3.20000,
,,,0.003071200000,   3.40000,
,,,0.003071600000,   3.20000,
,,,0.003072000000,   3.20000,
,,,0.003072400000,   3.40000,
,,,0.003072800000,   3.40000,
,,,0.003073200000,   3.20000,
,,,0.003073600000,   3.20000,
,,,0.003074000000,   3.40000,
,,,0.003074400000,   3.40000,
,,,0.003074800000,   3.40000,
,,,0.003075200000,   3.40000,
,,,0.003075600000,   3.40000,
,,,0.003076000000,   3.40000,
,,,0.003076400000,   3.60000,
,,,0.003076800000,   3.60000,
,,,0.003077200000,   3.60000,
,,,0.003077600000,   3.40000,
,,,0.003078000000,   3.40000,
,,,0.003078400000,   3.40000,
,,,0.003078800000,   3.60000,
,,,0.003079200000,   3.20000,
,,,0.003079600000,   3.60000,
,,,0.003080000000,   3.60000,
,,,0.003080400000,   3.60000,
,,,0.003080800000,   3.40000,
,,,0.003081200000,   3.60000,
,,,0.003081600000,   3.40000,
,,,0.003082000000,   3.40000,
,,,0.003082400000,   3.60000,
,,,0.003082800000,   3.60000,
,,,0.003083200000,   3.20000,
,,,0.003083600000,   3.60000,
,,,0.003084000000,   3.60000,
,,,0.003084400000,   3.60000,
,,,0.003084800000,   3.60000,
,,,0.003085200000,   3.60000,
,,,0.003085600000,   3.80000,
,,,0.003086000000,   3.60000,
,,,0.003086400000,   3.60000,
,,,0.003086800000,   3.60000,
,,,0.003087200000,   3.60000,
,,,0.003087600000,   3.60000,
,,,0.003088000000,   3.60000,
,,,0.003088400000,   3.60000,
,,,0.003088800000,   3.80000,
,,,0.003089200000,   3.80000,
,,,0.003089600000,   3.60000,
,,,0.003090000000,   3.40000,
,,,0.003090400000,   3.80000,
,,,0.003090800000,   3.60000,
,,,0.003091200000,   3.80000,
,,,0.003091600000,   3.60000,
,,,0.003092000000,   3.60000,
,,,0.003092400000,   3.60000,
,,,0.003092800000,   3.80000,
,,,0.003093200000,   3.60000,
,,,0.003093600000,   3.80000,
,,,0.003094000000,   3.80000,
,,,0.003094400000,   3.80000,
,,,0.003094800000,   3.60000,
,,,0.003095200000,   3.60000,
,,,0.003095600000,   3.60000,
,,,0.003096000000,   3.80000,
,,,0.003096400000,   3.80000,
,,,0.003096800000,   3.80000,
,,,0.003097200000,   3.80000,
,,,0.003097600000,   4.00000,
,,,0.003098000000,   3.80000,
,,,0.003098400000,   3.80000,
,,,0.003098800000,   3.80000,
,,,0.003099200000,   4.00000,
,,,0.003099600000,   3.80000,
,,,0.003100000000,   3.80000,
,,,0.003100400000,   3.80000,
,,,0.003100800000,   3.80000,
,,,0.003101200000,   3.80000,
,,,0.003101600000,   3.80000,
,,,0.003102000000,   3.80000,
,,,0.003102400000,   3.80000,
,,,0.003102800000,   4.20000,
,,,0.003103200000,   3.80000,
,,,0.003103600000,   4.00000,
,,,0.003104000000,   3.80000,
,,,0.003104400000,   3.80000,
,,,0.003104800000,   3.80000,
,,,0.003105200000,   4.20000,
,,,0.003105600000,   4.00000,
,,,0.003106000000,   4.20000,
,,,0.003106400000,   4.00000,
,,,0.003106800000,   4.00000,
,,,0.003107200000,   4.00000,
,,,0.003107600000,   4.00000,
,,,0.003108000000,   4.00000,
,,,0.003108400000,   4.00000,
,,,0.003108800000,   4.00000,
,,,0.003109200000,   4.00000,
,,,0.003109600000,   4.00000,
,,,0.003110000000,   4.20000,
,,,0.003110400000,   4.00000,
,,,0.003110800000,   4.00000,
,,,0.003111200000,   4.00000,
,,,0.003111600000,   4.00000,
,,,0.003112000000,   4.20000,
,,,0.003112400000,   4.00000,
,,,0.003112800000,   4.00000,
,,,0.003113200000,   4.00000,
,,,0.003113600000,   4.20000,
,,,0.003114000000,   4.00000,
,,,0.003114400000,   4.20000,
,,,0.003114800000,   4.00000,
,,,0.003115200000,   4.20000,
,,,0.003115600000,   4.00000,
,,,0.003116000000,   4.20000,
,,,0.003116400000,   4.00000,
,,,0.003116800000,   4.20000,
,,,0.003117200000,   4.00000,
,,,0.003117600000,   4.20000,
,,,0.003118000000,   4.20000,
,,,0.003118400000,   4.00000,
,,,0.003118800000,   4.40000,
,,,0.003119200000,   4.00000,
,,,0.003119600000,   4.40000,
,,,0.003120000000,   4.20000,
,,,0.003120400000,   3.80000,
,,,0.003120800000,   4.20000,
,,,0.003121200000,   4.40000,
,,,0.003121600000,   4.20000,
,,,0.003122000000,   4.20000,
,,,0.003122400000,   4.40000,
,,,0.003122800000,   4.20000,
,,,0.003123200000,   4.00000,
,,,0.003123600000,   4.20000,
,,,0.003124000000,   4.20000,
,,,0.003124400000,   4.20000,
,,,0.003124800000,   4.20000,
,,,0.003125200000,   4.20000,
,,,0.003125600000,   4.20000,
,,,0.003126000000,   4.20000,
,,,0.003126400000,   4.40000,
,,,0.003126800000,   4.20000,
,,,0.003127200000,   4.20000,
,,,0.003127600000,   4.40000,
,,,0.003128000000,   4.20000,
,,,0.003128400000,   4.40000,
,,,0.003128800000,   4.20000,
,,,0.003129200000,   4.20000,
,,,0.003129600000,   4.40000,
,,,0.003130000000,   4.40000,
,,,0.003130400000,   4.40000,
,,,0.003130800000,   4.40000,
,,,0.003131200000,   4.40000,
,,,0.003131600000,   4.20000,
,,,0.003132000000,   4.20000,
,,,0.003132400000,   4.40000,
,,,0.003132800000,   4.40000,
,,,0.003133200000,   4.20000,
,,,0.003133600000,   4.40000,
,,,0.003134000000,   4.40000,
,,,0.003134400000,   4.40000,
,,,0.003134800000,   4.60000,
,,,0.003135200000,   4.20000,
,,,0.003135600000,   4.40000,
,,,0.003136000000,   4.20000,
,,,0.003136400000,   4.40000,
,,,0.003136800000,   4.60000,
,,,0.003137200000,   4.20000,
,,,0.003137600000,   4.40000,
,,,0.003138000000,   4.60000,
,,,0.003138400000,   4.60000,
,,,0.003138800000,   4.20000,
,,,0.003139200000,   4.40000,
,,,0.003139600000,   4.60000,
,,,0.003140000000,   4.80000,
,,,0.003140400000,   4.40000,
,,,0.003140800000,   4.40000,
,,,0.003141200000,   4.60000,
,,,0.003141600000,   4.40000,
,,,0.003142000000,   4.40000,
,,,0.003142400000,   4.40000,
,,,0.003142800000,   4.60000,
,,,0.003143200000,   4.40000,
,,,0.003143600000,   4.40000,
,,,0.003144000000,   4.60000,
,,,0.003144400000,   4.60000,
,,,0.003144800000,   4.40000,
,,,0.003145200000,   4.60000,
,,,0.003145600000,   4.60000,
,,,0.003146000000,   4.60000,
,,,0.003146400000,   4.40000,
,,,0.003146800000,   4.60000,
,,,0.003147200000,   4.40000,
,,,0.003147600000,   4.80000,
,,,0.003148000000,   4.60000,
,,,0.003148400000,   4.40000,
,,,0.003148800000,   4.60000,
,,,0.003149200000,   4.40000,
,,,0.003149600000,   4.60000,
,,,0.003150000000,   4.60000,
,,,0.003150400000,   4.40000,
,,,0.003150800000,   4.40000,
,,,0.003151200000,   4.60000,
,,,0.003151600000,   4.40000,
,,,0.003152000000,   4.40000,
,,,0.003152400000,   4.40000,
,,,0.003152800000,   4.60000,
,,,0.003153200000,   4.60000,
,,,0.003153600000,   4.60000,
,,,0.003154000000,   4.40000,
,,,0.003154400000,   4.80000,
,,,0.003154800000,   4.60000,
,,,0.003155200000,   4.60000,
,,,0.003155600000,   4.60000,
,,,0.003156000000,   4.60000,
,,,0.003156400000,   4.60000,
,,,0.003156800000,   4.60000,
,,,0.003157200000,   4.60000,
,,,0.003157600000,   4.60000,
,,,0.003158000000,   4.60000,
,,,0.003158400000,   4.80000,
,,,0.003158800000,   4.60000,
,,,0.003159200000,   4.60000,
,,,0.003159600000,   4.60000,
,,,0.003160000000,   4.40000,
,,,0.003160400000,   4.60000,
,,,0.003160800000,   4.80000,
,,,0.003161200000,   4.60000,
,,,0.003161600000,   4.60000,
,,,0.003162000000,   4.80000,
,,,0.003162400000,   4.60000,
,,,0.003162800000,   4.80000,
,,,0.003163200000,   4.60000,
,,,0.003163600000,   4.80000,
,,,0.003164000000,   4.60000,
,,,0.003164400000,   4.60000,
,,,0.003164800000,   4.80000,
,,,0.003165200000,   4.80000,
,,,0.003165600000,   4.60000,
,,,0.003166000000,   4.60000,
,,,0.003166400000,   4.80000,
,,,0.003166800000,   5.00000,
,,,0.003167200000,   4.60000,
,,,0.003167600000,   4.60000,
,,,0.003168000000,   4.60000,
,,,0.003168400000,   4.80000,
,,,0.003168800000,   4.80000,
,,,0.003169200000,   4.60000,
,,,0.003169600000,   5.00000,
,,,0.003170000000,   4.60000,
,,,0.003170400000,   4.80000,
,,,0.003170800000,   4.60000,
,,,0.003171200000,   4.60000,
,,,0.003171600000,   4.80000,
,,,0.003172000000,   4.60000,
,,,0.003172400000,   4.60000,
,,,0.003172800000,   4.80000,
,,,0.003173200000,   4.60000,
,,,0.003173600000,   4.60000,
,,,0.003174000000,   4.80000,
,,,0.003174400000,   4.80000,
,,,0.003174800000,   4.60000,
,,,0.003175200000,   4.80000,
,,,0.003175600000,   4.80000,
,,,0.003176000000,   4.80000,
,,,0.003176400000,   4.80000,
,,,0.003176800000,   4.80000,
,,,0.003177200000,   4.80000,
,,,0.003177600000,   4.80000,
,,,0.003178000000,   4.80000,
,,,0.003178400000,   4.80000,
,,,0.003178800000,   4.80000,
,,,0.003179200000,   4.60000,
,,,0.003179600000,   5.00000,
,,,0.003180000000,   4.60000,
,,,0.003180400000,   4.60000,
,,,0.003180800000,   4.80000,
,,,0.003181200000,   4.60000,
,,,0.003181600000,   4.60000,
,,,0.003182000000,   4.80000,
,,,0.003182400000,   4.60000,
,,,0.003182800000,   4.80000,
,,,0.003183200000,   4.80000,
,,,0.003183600000,   4.80000,
,,,0.003184000000,   4.80000,
,,,0.003184400000,   5.00000,
,,,0.003184800000,   4.80000,
,,,0.003185200000,   4.80000,
,,,0.003185600000,   4.80000,
,,,0.003186000000,   4.80000,
,,,0.003186400000,   4.80000,
,,,0.003186800000,   4.80000,
,,,0.003187200000,   4.80000,
,,,0.003187600000,   4.80000,
,,,0.003188000000,   4.80000,
,,,0.003188400000,   4.80000,
,,,0.003188800000,   4.60000,
,,,0.003189200000,   4.80000,
,,,0.003189600000,   4.80000,
,,,0.003190000000,   4.80000,
,,,0.003190400000,   4.60000,
,,,0.003190800000,   4.80000,
,,,0.003191200000,   4.80000,
,,,0.003191600000,   4.60000,
,,,0.003192000000,   4.80000,
,,,0.003192400000,   4.80000,
,,,0.003192800000,   4.80000,
,,,0.003193200000,   4.80000,
,,,0.003193600000,   4.80000,
,,,0.003194000000,   4.80000,
,,,0.003194400000,   4.80000,
,,,0.003194800000,   4.80000,
,,,0.003195200000,   4.60000,
,,,0.003195600000,   4.80000,
,,,0.003196000000,   4.80000,
,,,0.003196400000,   5.00000,
,,,0.003196800000,   4.80000,
,,,0.003197200000,   5.00000,
,,,0.003197600000,   5.00000,
,,,0.003198000000,   4.80000,
,,,0.003198400000,   4.80000,
,,,0.003198800000,   4.80000,
,,,0.003199200000,   5.20000,
,,,0.003199600000,   4.60000,
,,,0.003200000000,   5.00000,
,,,0.003200400000,   4.80000,
,,,0.003200800000,   4.80000,
,,,0.003201200000,   4.60000,
,,,0.003201600000,   5.00000,
,,,0.003202000000,   4.80000,
,,,0.003202400000,   5.00000,
,,,0.003202800000,   4.80000,
,,,0.003203200000,   4.80000,
,,,0.003203600000,   4.80000,
,,,0.003204000000,   5.00000,
,,,0.003204400000,   5.00000,
,,,0.003204800000,   4.80000,
,,,0.003205200000,   5.00000,
,,,0.003205600000,   4.80000,
,,,0.003206000000,   4.80000,
,,,0.003206400000,   4.80000,
,,,0.003206800000,   4.80000,
,,,0.003207200000,   4.80000,
,,,0.003207600000,   5.00000,
,,,0.003208000000,   4.80000,
,,,0.003208400000,   5.00000,
,,,0.003208800000,   4.80000,
,,,0.003209200000,   4.80000,
,,,0.003209600000,   5.00000,
,,,0.003210000000,   4.80000,
,,,0.003210400000,   5.00000,
,,,0.003210800000,   5.00000,
,,,0.003211200000,   4.80000,
,,,0.003211600000,   4.60000,
,,,0.003212000000,   4.80000,
,,,0.003212400000,   4.80000,
,,,0.003212800000,   4.80000,
,,,0.003213200000,   4.80000,
